simulation/qsim/count_4digits.msim.vcd
$comment
	File created using the following command:
		vcd file count_4digits.msim.vcd -direction
$end
$date
	Fri Aug 18 21:15:30 2023
$end
$version
	ModelSim Version 10.1d
$end
$timescale
	1ps
$end
$scope module count_4digits_vlg_vec_tst $end
$var reg 1 ! clk_gen $end
$var reg 1 " ini_but $end
$var reg 1 # reset $end
$var wire 1 $ digit [3] $end
$var wire 1 % digit [2] $end
$var wire 1 & digit [1] $end
$var wire 1 ' digit [0] $end
$var wire 1 ( numbers [7] $end
$var wire 1 ) numbers [6] $end
$var wire 1 * numbers [5] $end
$var wire 1 + numbers [4] $end
$var wire 1 , numbers [3] $end
$var wire 1 - numbers [2] $end
$var wire 1 . numbers [1] $end
$var wire 1 / numbers [0] $end
$var wire 1 0 sampler $end
$scope module i1 $end
$var wire 1 1 gnd $end
$var wire 1 2 vcc $end
$var wire 1 3 unknown $end
$var tri1 1 4 devclrn $end
$var tri1 1 5 devpor $end
$var tri1 1 6 devoe $end
$var wire 1 7 Add4~8_combout $end
$var wire 1 8 Add4~16_combout $end
$var wire 1 9 Add4~24_combout $end
$var wire 1 : Add4~35 $end
$var wire 1 ; Add4~36_combout $end
$var wire 1 < Add5~6_combout $end
$var wire 1 = Add5~8_combout $end
$var wire 1 > Add5~23 $end
$var wire 1 ? Add5~24_combout $end
$var wire 1 @ princ_count~9_combout $end
$var wire 1 A princ_count~10_combout $end
$var wire 1 B Equal0~2_combout $end
$var wire 1 C Add1~1_combout $end
$var wire 1 D count_tens~4_combout $end
$var wire 1 E count_delay~2_combout $end
$var wire 1 F count_delay~7_combout $end
$var wire 1 G count_sw~0_combout $end
$var wire 1 H clk_gen~input_o $end
$var wire 1 I clk_gen~inputclkctrl_outclk $end
$var wire 1 J numbers[0]~output_o $end
$var wire 1 K numbers[1]~output_o $end
$var wire 1 L numbers[2]~output_o $end
$var wire 1 M numbers[3]~output_o $end
$var wire 1 N numbers[4]~output_o $end
$var wire 1 O numbers[5]~output_o $end
$var wire 1 P numbers[6]~output_o $end
$var wire 1 Q numbers[7]~output_o $end
$var wire 1 R digit[0]~output_o $end
$var wire 1 S digit[1]~output_o $end
$var wire 1 T digit[2]~output_o $end
$var wire 1 U digit[3]~output_o $end
$var wire 1 V reset~input_o $end
$var wire 1 W count_unit~0_combout $end
$var wire 1 X ini_but~input_o $end
$var wire 1 Y Add4~0_combout $end
$var wire 1 Z count_delay[4]~0_combout $end
$var wire 1 [ Add4~1 $end
$var wire 1 \ Add4~2_combout $end
$var wire 1 ] Add4~3 $end
$var wire 1 ^ Add4~5 $end
$var wire 1 _ Add4~6_combout $end
$var wire 1 ` Add4~7 $end
$var wire 1 a Add4~9 $end
$var wire 1 b Add4~10_combout $end
$var wire 1 c count_delay~1_combout $end
$var wire 1 d Add4~11 $end
$var wire 1 e Add4~12_combout $end
$var wire 1 f Add4~13 $end
$var wire 1 g Add4~15 $end
$var wire 1 h Add4~17 $end
$var wire 1 i Add4~18_combout $end
$var wire 1 j Add4~19 $end
$var wire 1 k Add4~20_combout $end
$var wire 1 l Add4~21 $end
$var wire 1 m Add4~22_combout $end
$var wire 1 n Add4~23 $end
$var wire 1 o Add4~25 $end
$var wire 1 p Add4~27 $end
$var wire 1 q Add4~29 $end
$var wire 1 r Add4~31 $end
$var wire 1 s Add4~32_combout $end
$var wire 1 t count_delay~5_combout $end
$var wire 1 u Add4~33 $end
$var wire 1 v Add4~34_combout $end
$var wire 1 w count_delay~6_combout $end
$var wire 1 x Add4~26_combout $end
$var wire 1 y count_delay~3_combout $end
$var wire 1 z Add4~30_combout $end
$var wire 1 { count_delay~4_combout $end
$var wire 1 | Add4~28_combout $end
$var wire 1 } Equal0~3_combout $end
$var wire 1 ~ Add4~14_combout $end
$var wire 1 !! Equal0~1_combout $end
$var wire 1 "! Add4~4_combout $end
$var wire 1 #! Equal0~0_combout $end
$var wire 1 $! Equal0~4_combout $end
$var wire 1 %! Equal0~5_combout $end
$var wire 1 &! count_unit[2]~1_combout $end
$var wire 1 '! Equal1~0_combout $end
$var wire 1 (! count_unit~3_combout $end
$var wire 1 )! Add0~0_combout $end
$var wire 1 *! count_unit~2_combout $end
$var wire 1 +! Add0~1_combout $end
$var wire 1 ,! count_unit~4_combout $end
$var wire 1 -! prs_state.tens~0_combout $end
$var wire 1 .! Add5~0_combout $end
$var wire 1 /! Add5~1 $end
$var wire 1 0! Add5~3 $end
$var wire 1 1! Add5~4_combout $end
$var wire 1 2! Add5~5 $end
$var wire 1 3! Add5~7 $end
$var wire 1 4! Add5~9 $end
$var wire 1 5! Add5~10_combout $end
$var wire 1 6! Add5~11 $end
$var wire 1 7! Add5~12_combout $end
$var wire 1 8! Add5~13 $end
$var wire 1 9! Add5~14_combout $end
$var wire 1 :! count_sw~3_combout $end
$var wire 1 ;! Add5~15 $end
$var wire 1 <! Add5~17 $end
$var wire 1 =! Add5~18_combout $end
$var wire 1 >! count_sw~1_combout $end
$var wire 1 ?! Add5~19 $end
$var wire 1 @! Add5~20_combout $end
$var wire 1 A! Add5~21 $end
$var wire 1 B! Add5~22_combout $end
$var wire 1 C! Equal5~0_combout $end
$var wire 1 D! Add5~16_combout $end
$var wire 1 E! count_sw~2_combout $end
$var wire 1 F! Equal5~1_combout $end
$var wire 1 G! count_sw~4_combout $end
$var wire 1 H! Add5~2_combout $end
$var wire 1 I! Equal5~2_combout $end
$var wire 1 J! Equal5~3_combout $end
$var wire 1 K! prs_state.tens~q $end
$var wire 1 L! prs_state.hundred~feeder_combout $end
$var wire 1 M! prs_state.hundred~q $end
$var wire 1 N! prs_state.thousand~feeder_combout $end
$var wire 1 O! prs_state.thousand~q $end
$var wire 1 P! prs_state.unit~0_combout $end
$var wire 1 Q! prs_state.unit~q $end
$var wire 1 R! numbers~0_combout $end
$var wire 1 S! count_tens~0_combout $end
$var wire 1 T! count_tens[0]~1_combout $end
$var wire 1 U! princ_count[1]~0_combout $end
$var wire 1 V! princ_count[1]~1_combout $end
$var wire 1 W! princ_count[0]~2_combout $end
$var wire 1 X! princ_count[0]~3_combout $end
$var wire 1 Y! count_tens~3_combout $end
$var wire 1 Z! count_thous~1_combout $end
$var wire 1 [! count_hund~0_combout $end
$var wire 1 \! Add1~0_combout $end
$var wire 1 ]! count_tens~2_combout $end
$var wire 1 ^! Equal2~0_combout $end
$var wire 1 _! count_thous[2]~0_combout $end
$var wire 1 `! count_hund[3]~1_combout $end
$var wire 1 a! count_hund~3_combout $end
$var wire 1 b! Add2~0_combout $end
$var wire 1 c! count_hund~2_combout $end
$var wire 1 d! Add2~1_combout $end
$var wire 1 e! count_hund~4_combout $end
$var wire 1 f! count_thous[2]~2_combout $end
$var wire 1 g! count_thous[2]~3_combout $end
$var wire 1 h! Add3~0_combout $end
$var wire 1 i! count_thous~5_combout $end
$var wire 1 j! Add3~1_combout $end
$var wire 1 k! count_thous~7_combout $end
$var wire 1 l! count_thous[2]~4_combout $end
$var wire 1 m! count_thous~6_combout $end
$var wire 1 n! princ_count[1]~7_combout $end
$var wire 1 o! princ_count[1]~8_combout $end
$var wire 1 p! princ_count~4_combout $end
$var wire 1 q! princ_count~5_combout $end
$var wire 1 r! princ_count[2]~6_combout $end
$var wire 1 s! numbers~1_combout $end
$var wire 1 t! numbers~2_combout $end
$var wire 1 u! numbers~4_combout $end
$var wire 1 v! numbers~3_combout $end
$var wire 1 w! numbers~5_combout $end
$var wire 1 x! numbers~6_combout $end
$var wire 1 y! numbers~7_combout $end
$var wire 1 z! numbers~8_combout $end
$var wire 1 {! numbers~9_combout $end
$var wire 1 |! count_unit [3] $end
$var wire 1 }! count_unit [2] $end
$var wire 1 ~! count_unit [1] $end
$var wire 1 !" count_unit [0] $end
$var wire 1 "" count_thous [3] $end
$var wire 1 #" count_thous [2] $end
$var wire 1 $" count_thous [1] $end
$var wire 1 %" count_thous [0] $end
$var wire 1 &" count_tens [3] $end
$var wire 1 '" count_tens [2] $end
$var wire 1 (" count_tens [1] $end
$var wire 1 )" count_tens [0] $end
$var wire 1 *" count_sw [12] $end
$var wire 1 +" count_sw [11] $end
$var wire 1 ," count_sw [10] $end
$var wire 1 -" count_sw [9] $end
$var wire 1 ." count_sw [8] $end
$var wire 1 /" count_sw [7] $end
$var wire 1 0" count_sw [6] $end
$var wire 1 1" count_sw [5] $end
$var wire 1 2" count_sw [4] $end
$var wire 1 3" count_sw [3] $end
$var wire 1 4" count_sw [2] $end
$var wire 1 5" count_sw [1] $end
$var wire 1 6" count_sw [0] $end
$var wire 1 7" count_hund [3] $end
$var wire 1 8" count_hund [2] $end
$var wire 1 9" count_hund [1] $end
$var wire 1 :" count_hund [0] $end
$var wire 1 ;" count_delay [18] $end
$var wire 1 <" count_delay [17] $end
$var wire 1 =" count_delay [16] $end
$var wire 1 >" count_delay [15] $end
$var wire 1 ?" count_delay [14] $end
$var wire 1 @" count_delay [13] $end
$var wire 1 A" count_delay [12] $end
$var wire 1 B" count_delay [11] $end
$var wire 1 C" count_delay [10] $end
$var wire 1 D" count_delay [9] $end
$var wire 1 E" count_delay [8] $end
$var wire 1 F" count_delay [7] $end
$var wire 1 G" count_delay [6] $end
$var wire 1 H" count_delay [5] $end
$var wire 1 I" count_delay [4] $end
$var wire 1 J" count_delay [3] $end
$var wire 1 K" count_delay [2] $end
$var wire 1 L" count_delay [1] $end
$var wire 1 M" count_delay [0] $end
$upscope $end
$upscope $end
$enddefinitions $end
#0
$dumpvars
0!
0"
0#
0'
1&
1%
1$
1/
1.
0-
0,
0+
0*
0)
0(
x0
01
12
x3
14
15
16
07
08
09
1:
0;
0<
0=
1>
0?
0@
0A
1B
0C
0D
0E
0F
0G
0H
0I
1J
1K
0L
0M
0N
0O
0P
0Q
0R
1S
1T
1U
0V
0W
0X
1Y
0Z
0[
0\
1]
0^
0_
1`
0a
0b
0c
1d
0e
0f
1g
0h
0i
1j
0k
0l
0m
1n
0o
1p
0q
1r
0s
0t
0u
0v
0w
0x
0y
0z
0{
0|
1}
0~
1!!
0"!
1#!
1$!
1%!
1&!
1'!
0(!
0)!
0*!
0+!
0,!
1-!
1.!
0/!
10!
01!
02!
13!
04!
05!
16!
07!
08!
09!
0:!
1;!
0<!
0=!
0>!
1?!
0@!
0A!
0B!
0C!
0D!
0E!
0F!
0G!
0H!
0I!
0J!
0K!
0L!
0M!
0N!
0O!
1P!
0Q!
0R!
0S!
1T!
1U!
1V!
1W!
0X!
0Y!
0Z!
0[!
0\!
0]!
1^!
0_!
1`!
0a!
0b!
0c!
0d!
0e!
0f!
1g!
0h!
0i!
0j!
0k!
1l!
0m!
1n!
0o!
0p!
0q!
0r!
1s!
0t!
0u!
0v!
0w!
0x!
0y!
0z!
0{!
0!"
0~!
0}!
0|!
0%"
0$"
0#"
0""
0)"
0("
0'"
0&"
06"
05"
04"
03"
02"
01"
00"
0/"
0."
0-"
0,"
0+"
0*"
0:"
09"
08"
07"
0M"
0L"
0K"
0J"
0I"
0H"
0G"
0F"
0E"
0D"
0C"
0B"
0A"
0@"
0?"
0>"
0="
0<"
0;"
$end
#10000
1!
1H
1I
00
16"
1/!
0.!
1H!
#20000
0!
0H
0I
10
#30000
1!
1H
1I
00
15"
06"
00!
0H!
0/!
1.!
11!
10!
1H!
01!
#40000
0!
0H
0I
10
#50000
1!
1H
1I
00
16"
1/!
0.!
00!
0H!
11!
#60000
0!
0H
0I
10
#70000
1!
1H
1I
00
05"
14"
06"
10!
1H!
12!
01!
0/!
1.!
02!
11!
1<
0H!
0<
1G!
0G!
#80000
0!
0H
0I
10
#90000
1!
1H
1I
00
16"
1/!
0.!
1H!
#100000
0!
0H
0I
10
#110000
1!
1H
1I
00
15"
06"
1I!
00!
0H!
0/!
1.!
12!
01!
10!
1H!
1<
02!
11!
1G!
0<
0G!
#120000
0!
0H
0I
10
#130000
1!
1H
1I
00
16"
1/!
0.!
00!
0H!
12!
01!
1<
1G!
#140000
0!
0H
0I
10
#150000
1!
1H
1I
00
05"
13"
04"
06"
0I!
10!
1H!
03!
0<
02!
11!
0/!
1.!
01!
1=
0G!
13!
1<
0H!
0=
1G!
#160000
0!
0H
0I
10
#170000
1!
1H
1I
00
16"
1/!
0.!
1H!
#180000
0!
0H
0I
10
#190000
1!
1H
1I
00
15"
06"
00!
0H!
0/!
1.!
11!
10!
1H!
01!
#200000
0!
0H
0I
10
#210000
1!
1H
1I
00
16"
1/!
0.!
00!
0H!
11!
#220000
0!
0H
0I
10
#230000
1!
1H
1I
00
05"
14"
06"
10!
1H!
12!
01!
0/!
1.!
02!
11!
03!
0<
0H!
13!
1<
1=
0G!
0=
1G!
#240000
0!
0H
0I
10
#250000
1!
1H
1I
00
16"
1/!
0.!
1H!
#260000
0!
0H
0I
10
#270000
1!
1H
1I
00
15"
06"
00!
0H!
0/!
1.!
12!
01!
10!
1H!
03!
0<
02!
11!
1=
0G!
13!
1<
0=
1G!
#280000
0!
0H
0I
10
#290000
1!
1H
1I
00
16"
1/!
0.!
00!
0H!
12!
01!
03!
0<
1=
0G!
#300000
0!
0H
0I
10
#310000
1!
1H
1I
00
05"
03"
04"
06"
12"
10!
1H!
13!
1<
02!
11!
0/!
1.!
14!
0=
01!
04!
1=
1G!
0<
0H!
15!
05!
0G!
#320000
0!
0H
0I
10
#330000
1!
1H
1I
00
16"
1/!
0.!
1H!
#340000
0!
0H
0I
10
#350000
1!
1H
1I
00
15"
06"
00!
0H!
0/!
1.!
11!
10!
1H!
01!
#360000
0!
0H
0I
10
#370000
1!
1H
1I
00
16"
1/!
0.!
00!
0H!
11!
#380000
0!
0H
0I
10
#390000
1!
1H
1I
00
05"
14"
06"
10!
1H!
12!
01!
0/!
1.!
02!
11!
1<
0H!
0<
1G!
0G!
#400000
0!
0H
0I
10
#410000
1!
1H
1I
00
16"
1/!
0.!
1H!
#420000
0!
0H
0I
10
#430000
1!
1H
1I
00
15"
06"
00!
0H!
0/!
1.!
12!
01!
10!
1H!
1<
02!
11!
1G!
0<
0G!
#440000
0!
0H
0I
10
#450000
1!
1H
1I
00
16"
1/!
0.!
00!
0H!
12!
01!
1<
1G!
#460000
0!
0H
0I
10
#470000
1!
1H
1I
00
05"
13"
04"
06"
10!
1H!
03!
0<
02!
11!
0/!
1.!
01!
14!
0=
0G!
13!
1<
0H!
15!
04!
1=
1G!
05!
#480000
0!
0H
0I
10
#490000
1!
1H
1I
00
16"
1/!
0.!
1H!
#500000
0!
0H
0I
10
#510000
1!
1H
1I
00
15"
06"
00!
0H!
0/!
1.!
11!
10!
1H!
01!
#520000
0!
0H
0I
10
#530000
1!
1H
1I
00
16"
1/!
0.!
00!
0H!
11!
#540000
0!
0H
0I
10
#550000
1!
1H
1I
00
05"
14"
06"
10!
1H!
12!
01!
0/!
1.!
02!
11!
03!
0<
0H!
13!
1<
14!
0=
0G!
04!
1=
1G!
15!
05!
#560000
0!
0H
0I
10
#570000
1!
1H
1I
00
16"
1/!
0.!
1H!
#580000
0!
0H
0I
10
#590000
1!
1H
1I
00
15"
06"
00!
0H!
0/!
1.!
12!
01!
10!
1H!
03!
0<
02!
11!
14!
0=
0G!
13!
1<
15!
04!
1=
1G!
05!
#600000
0!
0H
0I
10
#610000
1!
1H
1I
00
16"
1/!
0.!
00!
0H!
12!
01!
03!
0<
14!
0=
0G!
15!
#620000
0!
0H
0I
10
#630000
1!
1H
1I
00
05"
03"
11"
04"
06"
02"
10!
1H!
13!
1<
06!
05!
02!
11!
0/!
1.!
04!
1=
01!
0=
1G!
17!
0<
0H!
16!
15!
0G!
07!
#640000
0!
0H
0I
10
#650000
1!
1H
1I
00
16"
1/!
0.!
1H!
#660000
0!
0H
0I
10
#670000
1!
1H
1I
00
15"
06"
00!
0H!
0/!
1.!
11!
10!
1H!
01!
#680000
0!
0H
0I
10
#690000
1!
1H
1I
00
16"
1/!
0.!
00!
0H!
11!
#700000
0!
0H
0I
10
#710000
1!
1H
1I
00
05"
14"
06"
10!
1H!
12!
01!
0/!
1.!
02!
11!
1<
0H!
0<
1G!
0G!
#720000
0!
0H
0I
10
#730000
1!
1H
1I
00
16"
1/!
0.!
1H!
#740000
0!
0H
0I
10
#750000
1!
1H
1I
00
15"
06"
1I!
00!
0H!
0/!
1.!
12!
01!
10!
1H!
1<
02!
11!
1G!
0<
0G!
#760000
0!
0H
0I
10
#770000
1!
1H
1I
00
16"
1/!
0.!
00!
0H!
12!
01!
1<
1G!
#780000
0!
0H
0I
10
#790000
1!
1H
1I
00
05"
13"
04"
06"
0I!
10!
1H!
03!
0<
02!
11!
0/!
1.!
01!
1=
0G!
13!
1<
0H!
0=
1G!
#800000
0!
0H
0I
10
#810000
1!
1H
1I
00
16"
1/!
0.!
1H!
#820000
0!
0H
0I
10
#830000
1!
1H
1I
00
15"
06"
00!
0H!
0/!
1.!
11!
10!
1H!
01!
#840000
0!
0H
0I
10
#850000
1!
1H
1I
00
16"
1/!
0.!
00!
0H!
11!
#860000
0!
0H
0I
10
#870000
1!
1H
1I
00
05"
14"
06"
10!
1H!
12!
01!
0/!
1.!
02!
11!
03!
0<
0H!
13!
1<
1=
0G!
0=
1G!
#880000
0!
0H
0I
10
#890000
1!
1H
1I
00
16"
1/!
0.!
1H!
#900000
0!
0H
0I
10
#910000
1!
1H
1I
00
15"
06"
00!
0H!
0/!
1.!
12!
01!
10!
1H!
03!
0<
02!
11!
1=
0G!
13!
1<
0=
1G!
#920000
0!
0H
0I
10
#930000
1!
1H
1I
00
16"
1/!
0.!
00!
0H!
12!
01!
03!
0<
1=
0G!
#940000
0!
0H
0I
10
#950000
1!
1H
1I
00
05"
03"
04"
06"
12"
10!
1H!
13!
1<
02!
11!
0/!
1.!
14!
0=
01!
04!
1=
1G!
0<
0H!
06!
05!
16!
15!
0G!
17!
07!
#960000
0!
0H
0I
10
#970000
1!
1H
1I
00
16"
1/!
0.!
1H!
#980000
0!
0H
0I
10
#990000
1!
1H
1I
00
15"
06"
00!
0H!
0/!
1.!
11!
10!
1H!
01!
#1000000
0!
0H
0I
10
#1010000
1!
1H
1I
00
16"
1/!
0.!
00!
0H!
11!
#1020000
0!
0H
0I
10
#1030000
1!
1H
1I
00
05"
14"
06"
10!
1H!
12!
01!
0/!
1.!
02!
11!
1<
0H!
0<
1G!
0G!
#1040000
0!
0H
0I
10
#1050000
1!
1H
1I
00
16"
1/!
0.!
1H!
#1060000
0!
0H
0I
10
#1070000
1!
1H
1I
00
15"
06"
00!
0H!
0/!
1.!
12!
01!
10!
1H!
1<
02!
11!
1G!
0<
0G!
#1080000
0!
0H
0I
10
#1090000
1!
1H
1I
00
16"
1/!
0.!
00!
0H!
12!
01!
1<
1G!
#1100000
0!
0H
0I
10
#1110000
1!
1H
1I
00
05"
13"
04"
06"
10!
1H!
03!
0<
02!
11!
0/!
1.!
01!
14!
0=
0G!
13!
1<
0H!
06!
05!
04!
1=
1G!
17!
16!
15!
07!
#1120000
0!
0H
0I
10
#1130000
1!
1H
1I
00
16"
1/!
0.!
1H!
#1140000
0!
0H
0I
10
#1150000
1!
1H
1I
00
15"
06"
00!
0H!
0/!
1.!
11!
10!
1H!
01!
#1160000
0!
0H
0I
10
#1170000
1!
1H
1I
00
16"
1/!
0.!
00!
0H!
11!
#1180000
0!
0H
0I
10
#1190000
1!
1H
1I
00
05"
14"
06"
10!
1H!
12!
01!
0/!
1.!
02!
11!
03!
0<
0H!
13!
1<
14!
0=
0G!
04!
1=
1G!
06!
05!
16!
15!
17!
07!
#1200000
0!
0H
0I
10
#1210000
1!
1H
1I
00
16"
1/!
0.!
1H!
#1220000
0!
0H
0I
10
#1230000
1!
1H
1I
00
15"
06"
00!
0H!
0/!
1.!
12!
01!
10!
1H!
03!
0<
02!
11!
14!
0=
0G!
13!
1<
06!
05!
04!
1=
1G!
17!
16!
15!
07!
#1240000
0!
0H
0I
10
#1250000
1!
1H
1I
00
16"
1/!
0.!
00!
0H!
12!
01!
03!
0<
14!
0=
0G!
06!
05!
17!
#1260000
0!
0H
0I
10
#1270000
1!
1H
1I
00
05"
03"
10"
01"
04"
06"
02"
10!
1H!
13!
1<
18!
07!
16!
15!
02!
11!
0/!
1.!
04!
1=
01!
0=
1G!
19!
08!
17!
0<
0H!
05!
1:!
09!
0G!
0:!
#1280000
0!
0H
0I
10
#1290000
1!
1H
1I
00
16"
1/!
0.!
1H!
#1300000
0!
0H
0I
10
#1310000
1!
1H
1I
00
15"
06"
00!
0H!
0/!
1.!
11!
10!
1H!
01!
#1320000
0!
0H
0I
10
#1330000
1!
1H
1I
00
16"
1/!
0.!
00!
0H!
11!
#1340000
0!
0H
0I
10
#1350000
1!
1H
1I
00
05"
14"
06"
10!
1H!
12!
01!
0/!
1.!
02!
11!
1<
0H!
0<
1G!
0G!
#1360000
0!
0H
0I
10
#1370000
1!
1H
1I
00
16"
1/!
0.!
1H!
#1380000
0!
0H
0I
10
#1390000
1!
1H
1I
00
15"
06"
1I!
00!
0H!
0/!
1.!
12!
01!
10!
1H!
1<
02!
11!
1G!
0<
0G!
#1400000
0!
0H
0I
10
#1410000
1!
1H
1I
00
16"
1/!
0.!
00!
0H!
12!
01!
1<
1G!
#1420000
0!
0H
0I
10
#1430000
1!
1H
1I
00
05"
13"
04"
06"
0I!
10!
1H!
03!
0<
02!
11!
0/!
1.!
01!
1=
0G!
13!
1<
0H!
0=
1G!
#1440000
0!
0H
0I
10
#1450000
1!
1H
1I
00
16"
1/!
0.!
1H!
#1460000
0!
0H
0I
10
#1470000
1!
1H
1I
00
15"
06"
00!
0H!
0/!
1.!
11!
10!
1H!
01!
#1480000
0!
0H
0I
10
#1490000
1!
1H
1I
00
16"
1/!
0.!
00!
0H!
11!
#1500000
0!
0H
0I
10
#1510000
1!
1H
1I
00
05"
14"
06"
10!
1H!
12!
01!
0/!
1.!
02!
11!
03!
0<
0H!
13!
1<
1=
0G!
0=
1G!
#1520000
0!
0H
0I
10
#1530000
1!
1H
1I
00
16"
1/!
0.!
1H!
#1540000
0!
0H
0I
10
#1550000
1!
1H
1I
00
15"
06"
00!
0H!
0/!
1.!
12!
01!
10!
1H!
03!
0<
02!
11!
1=
0G!
13!
1<
0=
1G!
#1560000
0!
0H
0I
10
#1570000
1!
1H
1I
00
16"
1/!
0.!
00!
0H!
12!
01!
03!
0<
1=
0G!
#1580000
0!
0H
0I
10
#1590000
1!
1H
1I
00
05"
03"
04"
06"
12"
10!
1H!
13!
1<
02!
11!
0/!
1.!
14!
0=
01!
04!
1=
1G!
0<
0H!
15!
05!
0G!
#1600000
0!
0H
0I
10
#1610000
1!
1H
1I
00
16"
1/!
0.!
1H!
#1620000
0!
0H
0I
10
#1630000
1!
1H
1I
00
15"
06"
00!
0H!
0/!
1.!
11!
10!
1H!
01!
#1640000
0!
0H
0I
10
#1650000
1!
1H
1I
00
16"
1/!
0.!
00!
0H!
11!
#1660000
0!
0H
0I
10
#1670000
1!
1H
1I
00
05"
14"
06"
10!
1H!
12!
01!
0/!
1.!
02!
11!
1<
0H!
0<
1G!
0G!
#1680000
0!
0H
0I
10
#1690000
1!
1H
1I
00
16"
1/!
0.!
1H!
#1700000
0!
0H
0I
10
#1710000
1!
1H
1I
00
15"
06"
00!
0H!
0/!
1.!
12!
01!
10!
1H!
1<
02!
11!
1G!
0<
0G!
#1720000
0!
0H
0I
10
#1730000
1!
1H
1I
00
16"
1/!
0.!
00!
0H!
12!
01!
1<
1G!
#1740000
0!
0H
0I
10
#1750000
1!
1H
1I
00
05"
13"
04"
06"
10!
1H!
03!
0<
02!
11!
0/!
1.!
01!
14!
0=
0G!
13!
1<
0H!
15!
04!
1=
1G!
05!
#1760000
0!
0H
0I
10
#1770000
1!
1H
1I
00
16"
1/!
0.!
1H!
#1780000
0!
0H
0I
10
#1790000
1!
1H
1I
00
15"
06"
00!
0H!
0/!
1.!
11!
10!
1H!
01!
#1800000
0!
0H
0I
10
#1810000
1!
1H
1I
00
16"
1/!
0.!
00!
0H!
11!
#1820000
0!
0H
0I
10
#1830000
1!
1H
1I
00
05"
14"
06"
10!
1H!
12!
01!
0/!
1.!
02!
11!
03!
0<
0H!
13!
1<
14!
0=
0G!
04!
1=
1G!
15!
05!
#1840000
0!
0H
0I
10
#1850000
1!
1H
1I
00
16"
1/!
0.!
1H!
#1860000
0!
0H
0I
10
#1870000
1!
1H
1I
00
15"
06"
00!
0H!
0/!
1.!
12!
01!
10!
1H!
03!
0<
02!
11!
14!
0=
0G!
13!
1<
15!
04!
1=
1G!
05!
#1880000
0!
0H
0I
10
#1890000
1!
1H
1I
00
16"
1/!
0.!
00!
0H!
12!
01!
03!
0<
14!
0=
0G!
15!
#1900000
0!
0H
0I
10
#1910000
1!
1H
1I
00
05"
03"
11"
04"
06"
02"
10!
1H!
13!
1<
06!
05!
02!
11!
0/!
1.!
04!
1=
01!
0=
1G!
18!
07!
0<
0H!
16!
15!
19!
0G!
08!
17!
1:!
09!
0:!
#1920000
0!
0H
0I
10
#1930000
1!
1H
1I
00
16"
1/!
0.!
1H!
#1940000
0!
0H
0I
10
#1950000
1!
1H
1I
00
15"
06"
00!
0H!
0/!
1.!
11!
10!
1H!
01!
#1960000
0!
0H
0I
10
#1970000
1!
1H
1I
00
16"
1/!
0.!
00!
0H!
11!
#1980000
0!
0H
0I
10
#1990000
1!
1H
1I
00
05"
14"
06"
10!
1H!
12!
01!
0/!
1.!
02!
11!
1<
0H!
0<
1G!
0G!
#2000000
0!
0H
0I
10
#2010000
1!
1H
1I
00
16"
1/!
0.!
1H!
#2020000
0!
0H
0I
10
#2030000
1!
1H
1I
00
15"
06"
1I!
00!
0H!
0/!
1.!
12!
01!
10!
1H!
1<
02!
11!
1G!
0<
0G!
#2040000
0!
0H
0I
10
#2050000
1!
1H
1I
00
16"
1/!
0.!
00!
0H!
12!
01!
1<
1G!
#2060000
0!
0H
0I
10
#2070000
1!
1H
1I
00
05"
13"
04"
06"
0I!
10!
1H!
03!
0<
02!
11!
0/!
1.!
01!
1=
0G!
13!
1<
0H!
0=
1G!
#2080000
0!
0H
0I
10
#2090000
1!
1H
1I
00
16"
1/!
0.!
1H!
#2100000
0!
0H
0I
10
#2110000
1!
1H
1I
00
15"
06"
00!
0H!
0/!
1.!
11!
10!
1H!
01!
#2120000
0!
0H
0I
10
#2130000
1!
1H
1I
00
16"
1/!
0.!
00!
0H!
11!
#2140000
0!
0H
0I
10
#2150000
1!
1H
1I
00
05"
14"
06"
10!
1H!
12!
01!
0/!
1.!
02!
11!
03!
0<
0H!
13!
1<
1=
0G!
0=
1G!
#2160000
0!
0H
0I
10
#2170000
1!
1H
1I
00
16"
1/!
0.!
1H!
#2180000
0!
0H
0I
10
#2190000
1!
1H
1I
00
15"
06"
00!
0H!
0/!
1.!
12!
01!
10!
1H!
03!
0<
02!
11!
1=
0G!
13!
1<
0=
1G!
#2200000
0!
0H
0I
10
#2210000
1!
1H
1I
00
16"
1/!
0.!
00!
0H!
12!
01!
03!
0<
1=
0G!
#2220000
0!
0H
0I
10
#2230000
1!
1H
1I
00
05"
03"
04"
06"
12"
10!
1H!
13!
1<
02!
11!
0/!
1.!
14!
0=
01!
04!
1=
1G!
0<
0H!
06!
05!
16!
15!
0G!
18!
07!
08!
17!
19!
09!
1:!
0:!
#2240000
0!
0H
0I
10
#2250000
1!
1H
1I
00
16"
1/!
0.!
1H!
#2260000
0!
0H
0I
10
#2270000
1!
1H
1I
00
15"
06"
00!
0H!
0/!
1.!
11!
10!
1H!
01!
#2280000
0!
0H
0I
10
#2290000
1!
1H
1I
00
16"
1/!
0.!
00!
0H!
11!
#2300000
0!
0H
0I
10
#2310000
1!
1H
1I
00
05"
14"
06"
10!
1H!
12!
01!
0/!
1.!
02!
11!
1<
0H!
0<
1G!
0G!
#2320000
0!
0H
0I
10
#2330000
1!
1H
1I
00
16"
1/!
0.!
1H!
#2340000
0!
0H
0I
10
#2350000
1!
1H
1I
00
15"
06"
00!
0H!
0/!
1.!
12!
01!
10!
1H!
1<
02!
11!
1G!
0<
0G!
#2360000
0!
0H
0I
10
#2370000
1!
1H
1I
00
16"
1/!
0.!
00!
0H!
12!
01!
1<
1G!
#2380000
0!
0H
0I
10
#2390000
1!
1H
1I
00
05"
13"
04"
06"
10!
1H!
03!
0<
02!
11!
0/!
1.!
01!
14!
0=
0G!
13!
1<
0H!
06!
05!
04!
1=
1G!
18!
07!
16!
15!
19!
08!
17!
1:!
09!
0:!
#2400000
0!
0H
0I
10
#2410000
1!
1H
1I
00
16"
1/!
0.!
1H!
#2420000
0!
0H
0I
10
#2430000
1!
1H
1I
00
15"
06"
00!
0H!
0/!
1.!
11!
10!
1H!
01!
#2440000
0!
0H
0I
10
#2450000
1!
1H
1I
00
16"
1/!
0.!
00!
0H!
11!
#2460000
0!
0H
0I
10
#2470000
1!
1H
1I
00
05"
14"
06"
10!
1H!
12!
01!
0/!
1.!
02!
11!
03!
0<
0H!
13!
1<
14!
0=
0G!
04!
1=
1G!
06!
05!
16!
15!
18!
07!
08!
17!
19!
09!
1:!
0:!
#2480000
0!
0H
0I
10
#2490000
1!
1H
1I
00
16"
1/!
0.!
1H!
#2500000
0!
0H
0I
10
#2510000
1!
1H
1I
00
15"
06"
00!
0H!
0/!
1.!
12!
01!
10!
1H!
03!
0<
02!
11!
14!
0=
0G!
13!
1<
06!
05!
04!
1=
1G!
18!
07!
16!
15!
19!
08!
17!
1:!
09!
0:!
#2520000
0!
0H
0I
10
#2530000
1!
1H
1I
00
16"
1/!
0.!
00!
0H!
12!
01!
03!
0<
14!
0=
0G!
06!
05!
18!
07!
19!
1:!
#2540000
0!
0H
0I
10
